2010 to 2020 tract crosswalk — xwalk_tract_10_to_20 • justviz
…
# filter ejscreen for just traffic, rename value column accordingly
traffic <- ejscreen |>
  filter(indicator == "traffic") |>
  select(tract20 = tract, traffic_value_ptile = value_ptile)

# join both data frames now that they have geographies in common
traffic |>
  inner_join(asthma20, by = "tract20")
#> # A tibble: 1,460 × 4
#>    tract20     traffic_value_ptile asthma adult_pop
#>    <chr>                     <int>  <dbl>     <dbl>
#>  1 24001000100                   9  10.4      3718 
#>  2 24001000200                   9   9.2      4564 
#>  3 24001000500                  83  11.5      2735.
#>  4 24001000600                  45  10.4      2979.
#>  5 24001000700                  47  11.6      3387 
#>  6 24001000800                  65  11.9      2213 
#>  7 24001001000                  74  11.1      2551.
#>  8 24001001100                  76  10.9      1511.
#>  9 24001001200                  60   9.69     3191.
#> 10 24001001300                  27   9.33     5128.
#> # ℹ 1,450 more rows
…
